<?xml version="1.0" encoding="UTF-8" standalone="no"?>
<svg
   xmlns:dc="http://purl.org/dc/elements/1.1/"
   xmlns:cc="http://creativecommons.org/ns#"
   xmlns:rdf="http://www.w3.org/1999/02/22-rdf-syntax-ns#"
   xmlns:svg="http://www.w3.org/2000/svg"
   xmlns="http://www.w3.org/2000/svg"
   xmlns:sodipodi="http://sodipodi.sourceforge.net/DTD/sodipodi-0.dtd"
   xmlns:inkscape="http://www.inkscape.org/namespaces/inkscape"
   width="18.520832mm"
   height="10.583333mm"
   viewBox="0 0 18.520832 10.583333"
   version="1.1"
   id="svg8"
   sodipodi:docname="Broken_block.svg"
   inkscape:version="1.0.2 (e86c870879, 2021-01-15)">
  <sodipodi:namedview
     pagecolor="#ffffff"
     bordercolor="#666666"
     borderopacity="1"
     objecttolerance="10"
     gridtolerance="10"
     guidetolerance="10"
     inkscape:pageopacity="0"
     inkscape:pageshadow="2"
     inkscape:window-width="1920"
     inkscape:window-height="1016"
     id="namedview13"
     showgrid="false"
     fit-margin-top="0"
     fit-margin-left="0"
     fit-margin-right="0"
     fit-margin-bottom="0"
     inkscape:zoom="6.006197"
     inkscape:cx="30.510664"
     inkscape:cy="46.806941"
     inkscape:window-x="0"
     inkscape:window-y="0"
     inkscape:window-maximized="1"
     inkscape:current-layer="svg8" />
  <defs
     id="defs2" />
  <metadata
     id="metadata5">
    <rdf:RDF>
      <cc:Work
         rdf:about="">
        <dc:format>image/svg+xml</dc:format>
        <dc:type
           rdf:resource="http://purl.org/dc/dcmitype/StillImage" />
        <dc:title></dc:title>
      </cc:Work>
    </rdf:RDF>
  </metadata>
  <g
     id="layer1"
     transform="matrix(0.19758065,0,0,0.21874998,-2.5391465,-1.9843746)">
    <rect
       style="fill:#4d4d4d;stroke:#000000;stroke-width:0;stroke-linecap:round;stroke-linejoin:round"
       id="rect10"
       width="93.738091"
       height="48.380955"
       x="12.851191"
       y="9.0714283" />
    <rect
       style="fill:#d4aa00;stroke:#000000;stroke-width:0;stroke-linecap:round;stroke-linejoin:round"
       id="rect12"
       width="87.690468"
       height="41.577389"
       x="15.875002"
       y="12.473211" />
    <path
       style="fill:#4d4d4d;stroke:#000000;stroke-width:0;stroke-linecap:round;stroke-linejoin:round"
       id="path16"
       d="m 16.268901,36.521548 c 0.722397,-1.379651 1.599953,-2.642227 2.664106,-3.775371 1.108727,-0.942922 2.419119,-1.601766 3.746423,-2.177854 0.548803,-0.254262 1.116018,-0.321789 1.710128,-0.343757 0.505937,-0.01056 1.011983,-7.94e-4 1.517902,0.006 0.407787,0.0052 0.815604,0.0066 1.22342,0.0072 0.549066,5.29e-4 1.098129,5.29e-4 1.647195,2.65e-4 0.743154,-5.3e-5 1.48631,-7.4e-5 2.229464,-9e-5 1.32502,-0.105445 2.562082,-0.643364 3.797094,-1.097037 1.017733,-0.53408 2.089332,-0.884205 3.190544,-1.193151 0.747411,-0.134689 1.432724,-0.48545 2.172446,-0.644814 0.42096,-0.07356 0.858795,-0.124902 1.282554,-0.05558 1.188847,0.355174 2.410767,0.582261 3.610547,0.893197 1.307441,0.509063 2.567524,0.222998 3.874069,-0.131059 1.545698,-0.427083 0.941713,-2.613033 -0.603986,-2.185951 v 0 c -1.154279,0.3267 -1.563161,0.526127 -2.707187,0.120119 -1.302007,-0.330455 -2.618283,-0.608978 -3.91722,-0.949643 -0.684022,-0.06384 -1.368711,-0.05362 -2.043073,0.09783 -0.774523,0.182416 -1.503526,0.504976 -2.281997,0.67269 -1.155229,0.325466 -2.292593,0.685313 -3.358917,1.247664 -0.987737,0.363082 -1.97158,0.786905 -3.014916,0.957871 -0.743178,1.3e-5 -1.486358,3.4e-5 -2.229538,8.7e-5 -0.547762,2.7e-5 -1.095526,2.2e-4 -1.64329,-2.64e-4 -0.399121,-7.94e-4 -0.798245,-0.0019 -1.197339,-0.0071 -0.545572,-0.0072 -1.091304,-0.01775 -1.636871,-0.0044 -0.873878,0.03597 -1.720404,0.167722 -2.526185,0.530471 -1.609607,0.702464 -3.19063,1.517613 -4.498658,2.70927 -1.206314,1.297646 -2.218136,2.733067 -3.035148,4.309131 -0.717159,1.434317 1.311274,2.448534 2.028433,1.014217 z" />
    <path
       style="fill:#4d4d4d;stroke:#000000;stroke-width:0;stroke-linecap:round;stroke-linejoin:round"
       id="path18"
       d="m 92.596956,12.700535 c -1.137801,0.439856 -2.305707,0.795261 -3.466444,1.168905 -1.27603,0.370987 -2.58966,0.597915 -3.897934,0.823603 -1.685105,0.202046 -3.360005,0.461022 -5.031127,0.75632 -1.362339,0.257177 -2.687399,0.645099 -3.990078,1.113307 -1.047821,0.285831 -1.970719,0.854058 -2.886448,1.417662 -0.664673,0.47524 -0.352962,0.240138 -0.938162,0.701274 -1.257517,0.995108 0.149781,2.773504 1.407298,1.778396 v 0 c 0.461621,-0.367195 0.222035,-0.183964 0.71973,-0.548408 0.783577,-0.48246 1.563182,-0.980848 2.46476,-1.21477 1.181566,-0.424814 2.381541,-0.780425 3.617534,-1.014203 1.668455,-0.294832 3.340804,-0.55062 5.022903,-0.754883 1.412468,-0.244772 2.830627,-0.491506 4.206595,-0.899583 1.227791,-0.395427 2.463723,-0.770737 3.664725,-1.24313 1.473957,-0.631696 0.580604,-2.716186 -0.893352,-2.08449 z" />
    <path
       style="fill:#4d4d4d;stroke:#000000;stroke-width:0;stroke-linecap:round;stroke-linejoin:round"
       id="path20"
       d="m 55.675355,54.128008 c 3.777821,-1.674905 7.50802,-3.476776 11.148128,-5.43437 2.206453,-1.258324 4.436129,-2.663264 5.86358,-4.831275 0.272677,-0.41414 0.480123,-0.86772 0.720185,-1.301578 0.932881,-2.085253 1.194781,-4.368105 1.782799,-6.554571 0.07208,-0.203962 0.120142,-0.418071 0.216223,-0.611886 0.351991,-0.710041 1.511115,-0.770353 2.173375,-0.886156 0.549,-0.04991 1.098153,-0.0072 1.645843,0.03169 1.599846,0.10991 1.755283,-2.152616 0.155438,-2.262526 v 0 c -0.735658,-0.04917 -1.472692,-0.09734 -2.207991,-2.52e-4 -2.038389,0.38313 -3.576714,0.957848 -4.173902,3.143782 -0.536202,2.018813 -0.803749,4.113684 -1.587196,6.062186 -0.172701,0.330364 -0.317508,0.676886 -0.518102,0.991095 -1.226338,1.920925 -3.221064,3.112627 -5.145018,4.222483 -3.618892,1.949148 -7.331797,3.734496 -11.087579,5.40295 -1.434319,0.717159 -0.420103,2.745592 1.014217,2.028431 z" />
    <path
       style="fill:#4d4d4d;stroke:#000000;stroke-width:0;stroke-linecap:round;stroke-linejoin:round"
       id="path22"
       d="m 102.94625,33.750787 c -1.32128,1.113536 -2.8063,2.018273 -4.221362,3.009236 -1.154663,0.765026 -2.274938,1.325792 -2.585926,2.798648 -0.05626,0.266425 -0.03973,0.543145 -0.05959,0.814718 -0.01423,0.705755 0.223588,1.342295 0.478512,1.984124 0.602533,1.486117 2.704219,0.634008 2.101686,-0.852109 v 0 c -0.140055,-0.335063 -0.300427,-0.650764 -0.315,-1.02222 -8.7e-5,-0.03109 -0.08617,-0.59118 -0.0063,-0.672 0.479909,-0.485849 1.164013,-0.767977 1.68769,-1.193612 1.46668,-1.027427 3.00454,-1.967095 4.37218,-3.124568 1.23193,-1.026612 -0.21992,-2.768827 -1.45185,-1.742217 z" />
    <path
       style="fill:#4d4d4d;stroke:#000000;stroke-width:0;stroke-linecap:round;stroke-linejoin:round"
       id="path32"
       d="m 23.366894,54.154916 c 1.38388,-1.229569 2.806883,-2.433505 4.440957,-3.314203 1.92169,-0.942382 4.093763,-1.208481 6.193319,-1.493067 0.798875,-0.07071 1.545354,-0.305403 2.287884,-0.588812 1.491212,-0.589809 0.657098,-2.698702 -0.834115,-2.108893 v 0 c -0.566092,0.23694 -1.142275,0.395264 -1.758998,0.450482 -2.375143,0.323236 -4.816885,0.653992 -6.978144,1.751584 -1.879667,1.043996 -3.574988,2.39445 -5.121802,3.88619 -1.001771,1.252214 0.769128,2.668934 1.770899,1.416719 z" />
  </g>
</svg>
